<?xml version="1.0" standalone="no"?>
<!DOCTYPE svg PUBLIC "-//W3C//DTD SVG 20010904//EN"
 "http://www.w3.org/TR/2001/REC-SVG-20010904/DTD/svg10.dtd">
<svg version="1.0" xmlns="http://www.w3.org/2000/svg"
 width="20.000000pt" height="32.000000pt" viewBox="0 0 20.000000 32.000000"
 preserveAspectRatio="xMidYMid meet">
<metadata>
Created by potrace 1.16, written by Peter Selinger 2001-2019
</metadata>
<g transform="translate(0.000000,32.000000) scale(0.100000,-0.100000)"
fill="#000000" stroke="none">
<path d="M10 160 c0 -77 3 -140 6 -140 3 0 25 16 48 35 l43 35 33 -35 c19 -19
38 -35 42 -35 4 0 8 63 8 140 0 77 -3 140 -8 140 -4 0 -25 -14 -45 -31 l-38
-32 -33 32 c-53 52 -56 46 -56 -109z m67 77 l22 -20 35 27 c19 14 37 26 40 26
3 0 5 -49 4 -110 0 -60 -3 -110 -6 -110 -3 0 -20 14 -38 31 l-32 31 -36 -32
-36 -32 0 112 c0 118 0 119 47 77z"/>
</g>
</svg>
