<?xml version="1.0" standalone="no"?>
<!DOCTYPE svg PUBLIC "-//W3C//DTD SVG 20010904//EN"
 "http://www.w3.org/TR/2001/REC-SVG-20010904/DTD/svg10.dtd">
<svg version="1.0" xmlns="http://www.w3.org/2000/svg"
 width="36.000000pt" height="60.000000pt" viewBox="0 0 36.000000 60.000000"
 preserveAspectRatio="xMidYMid meet">

<g transform="translate(0.000000,60.000000) scale(0.100000,-0.100000)"
fill="#000000" stroke="none">
<path d="M13 593 c-10 -3 -13 -73 -13 -299 0 -286 1 -294 20 -294 19 0 20 8
22 252 l3 253 138 -252 c100 -182 142 -250 153 -246 8 3 14 10 14 15 0 15
-311 578 -319 577 -3 0 -12 -3 -18 -6z"/>
<path d="M80 120 c0 -113 1 -120 20 -120 19 0 20 7 20 120 0 113 -1 120 -20
120 -19 0 -20 -7 -20 -120z"/>
</g>
</svg>
